{
  "pageDetails": {
    "title": "All Leads",
    "subtitle": "A comprehensive list of all leads in the system"
  },
  "tableHeaders": [
    { "key": "lead_name", "displayName": "Lead Name" },
    { "key": "company_name", "displayName": "Company Name" },
    { "key": "status", "displayName": "Status" },
    { "key": "priority", "displayName": "Priority" },
    { "key": "deal_value", "displayName": "Deal Value" },
    { "key": "lead_source", "displayName": "Lead Source" },
    { "key": "created_at", "displayName": "Created At" },
    { "key": "follow_up_date", "displayName": "Follow-up Date" },
    { "key": "is_contacted", "displayName": "Contacted" },
    { "key": "owner_id", "displayName": "Owner ID" },
    { "key": "employee_count", "displayName": "Employee Count" },
    { "key": "notes", "displayName": "Notes" }
  ],
  "data": [
    {
      "lead_name": "John Smith",
      "company_name": "Innovate Inc.",
      "status": "New",
      "priority": "High",
      "deal_value": 50000,
      "lead_source": "Webinar",
      "created_at": "2025-08-27T10:00:00Z",
      "follow_up_date": "2025-09-05T10:00:00Z",
      "is_contacted": false,
      "owner_id": "user_101",
      "employee_count": 250,
      "notes": "Interested in Enterprise plan. Follow up next week."
    },
    {
      "lead_name": "Maria Garcia",
      "company_name": "Solutions Co.",
      "status": "Contacted",
      "priority": "Medium",
      "deal_value": 25000,
      "lead_source": "Referral",
      "created_at": "2025-08-25T14:30:00Z",
      "follow_up_date": "2025-09-02T10:00:00Z",
      "is_contacted": true,
      "owner_id": "user_102",
      "employee_count": 75,
      "notes": "Sent initial proposal. Awaiting feedback."
    },
    {
      "lead_name": "Chen Wei",
      "company_name": "Tech Forward",
      "status": "Qualified",
      "priority": "High",
      "deal_value": 75000,
      "lead_source": "Conference",
      "created_at": "2025-08-20T09:00:00Z",
      "follow_up_date": "2025-09-01T10:00:00Z",
      "is_contacted": true,
      "owner_id": "user_101",
      "employee_count": 500,
      "notes": "Demo scheduled for Monday."
    },
    {
      "lead_name": "Fatima Al-Sayed",
      "company_name": "Global Connect",
      "status": "New",
      "priority": "Low",
      "deal_value": 10000,
      "lead_source": "Webinar",
      "created_at": "2025-08-30T11:00:00Z",
      "follow_up_date": null,
      "is_contacted": false,
      "owner_id": "user_103",
      "employee_count": 120,
      "notes": "Downloaded whitepaper on AI integration."
    }
  ],
  "filterConfig": [
    { "columnName": "lead_name", "filterType": "FREETEXT", "options": ["John Smith", "Maria Garcia", "Chen Wei", "Fatima Al-Sayed"] },
    { "columnName": "company_name", "filterType": "FREETEXT", "options": ["Innovate Inc.", "Solutions Co.", "Tech Forward", "Global Connect"] },
    { "columnName": "status", "filterType": "LIST", "options": ["New", "Contacted", "Qualified", "Lost", "Unqualified"] },
    { "columnName": "priority", "filterType": "LIST", "options": ["Low", "Medium", "High", "Urgent"] },
    { "columnName": "deal_value", "filterType": "NUMERIC", "options": ["top 10%", "bottom 10%"] },
    { "columnName": "lead_source", "filterType": "LIST", "options": ["Webinar", "Referral", "Conference", "Cold Call"] },
    { "columnName": "created_at", "filterType": "DATE", "options": ["today", "yesterday", "last 7 days", "this month", "last month"] },
    { "columnName": "follow_up_date", "filterType": "DATE", "options": ["today", "tomorrow", "next 7 days", "this month", "next month"] },
    { "columnName": "is_contacted", "filterType": "BOOLEAN", "options": [true, false] },
    { "columnName": "owner_id", "filterType": "FREETEXT", "options": ["user_101", "user_102", "user_103"] },
    { "columnName": "employee_count", "filterType": "NUMERIC", "options": [] },
    { "columnName": "notes", "filterType": "FREETEXT", "options": [] }
  ],
  "savedFilters": [
    { "identifier": "high_priority_leads", "displayName": "High Priority" },
    { "identifier": "recent_leads", "displayName": "Added This Month" }
  ],
  "pagination": {
    "currentPage": 1,
    "pageSize": 50,
    "totalRecords": 1250,
    "totalPages": 25
  }
}


